<?xml version="1.0" encoding="UTF-8"?>
<svg width="33px" height="40px" viewBox="0 0 33 40" version="1.1" xmlns="http://www.w3.org/2000/svg" xmlns:xlink="http://www.w3.org/1999/xlink">
    <!-- Generator: Sketch 49.3 (51167) - http://www.bohemiancoding.com/sketch -->
    <title>invoice</title>
    <desc>Created with Sketch.</desc>
    <defs></defs>
    <g id="Page-1" stroke="none" stroke-width="1" fill="none" fill-rule="evenodd">
        <g id="Installers" transform="translate(-1155.000000, -775.000000)" fill="#FDB403" fill-rule="nonzero">
            <g id="invoice" transform="translate(1155.000000, 775.000000)">
                <path d="M24.0107813,2.67226563 L19.1896875,2.67226563 C18.9276563,1.89648438 18.1934375,1.33617187 17.3303125,1.33617187 L15.9594531,1.33617187 C15.3405469,0.503984375 14.3603906,0 13.3219531,0 C12.2835156,0 11.3032812,0.503984375 10.6844531,1.33609375 L9.31359375,1.33609375 C8.45046875,1.33609375 7.71625,1.89640625 7.45421875,2.6721875 L2.63289062,2.6721875 C1.18242187,2.6721875 0.002421875,3.85226562 0.002421875,5.30265625 L0.002421875,33.3610938 C0.002421875,34.8115625 1.1825,35.9915625 2.63289062,35.9915625 L15.9940625,35.9915625 C16.3399219,35.9915625 16.6203906,35.7111719 16.6203906,35.3652344 C16.6203906,35.019375 16.34,34.7389063 15.9940625,34.7389063 L2.63289062,34.7389063 C1.873125,34.7389063 1.255,34.1207813 1.255,33.3610156 L1.255,5.30273438 C1.255,4.54296875 1.873125,3.92484375 2.63289062,3.92484375 L7.35117187,3.92484375 L7.35117187,5.97078125 C7.35117187,6.31664063 7.6315625,6.59710938 7.9775,6.59710938 L18.6664062,6.59710938 C19.0122656,6.59710938 19.2927344,6.31671875 19.2927344,5.97078125 L19.2927344,3.92484375 L24.0107813,3.92484375 C24.7705469,3.92484375 25.3886719,4.54296875 25.3886719,5.30273438 L25.3886719,23.3403125 C25.3886719,23.6861719 25.6690625,23.9666406 26.015,23.9666406 C26.3608594,23.9666406 26.6413281,23.68625 26.6413281,23.3403125 L26.6413281,5.30273438 C26.64125,3.85226562 25.46125,2.67226563 24.0107813,2.67226563 Z M18.0402344,5.34445313 L8.60382812,5.34445313 L8.60382812,3.3009375 C8.60382812,3.30007812 8.60390625,3.299375 8.60390625,3.29851562 C8.60390625,3.298125 8.60382812,3.29765625 8.60382812,3.29734375 C8.60453125,2.90640625 8.92257812,2.58867188 9.31359375,2.58867188 L11.0203125,2.58867188 C11.2432813,2.58867188 11.4494531,2.47015625 11.5616406,2.27734375 C11.9351563,1.63570313 12.5932031,1.25257812 13.3219531,1.25257812 C14.0507031,1.25257812 14.70875,1.63570313 15.0822656,2.27734375 C15.194375,2.47007812 15.400625,2.58867188 15.6235937,2.58867188 L17.3303125,2.58867188 C17.7208594,2.58867188 18.0386719,2.90578125 18.0400781,3.29609375 C18.0400781,3.29695313 18.04,3.29765625 18.04,3.29851562 C18.04,3.30015625 18.0402344,3.30171875 18.0402344,3.30335937 L18.0402344,5.34445313 Z" id="Shape"></path>
                <path d="M15.9939062,32.0667969 L3.92726563,32.0667969 L3.92726563,6.59710938 L5.30539063,6.59710938 C5.65125,6.59710938 5.93171875,6.31671875 5.93171875,5.97078125 C5.93171875,5.62484375 5.65132813,5.34445313 5.30539063,5.34445313 L3.30101563,5.34445313 C2.95515625,5.34445313 2.6746875,5.62484375 2.6746875,5.97078125 L2.6746875,32.693125 C2.6746875,33.0389844 2.95507813,33.3194531 3.30101563,33.3194531 L15.9939844,33.3194531 C16.3398438,33.3194531 16.6203125,33.0390625 16.6203125,32.693125 C16.6202344,32.3471875 16.3398438,32.0667969 15.9939062,32.0667969 Z" id="Shape"></path>
                <path d="M23.3427344,5.34445313 L21.3385938,5.34445313 C20.9927344,5.34445313 20.7122656,5.62484375 20.7122656,5.97078125 C20.7122656,6.31671875 20.9926562,6.59710938 21.3385938,6.59710938 L22.7164844,6.59710938 L22.7164844,23.3401563 C22.7164844,23.6860156 22.996875,23.9664844 23.3428125,23.9664844 C23.68875,23.9664844 23.9691406,23.6860938 23.9691406,23.3401563 L23.9691406,5.97078125 C23.9690625,5.62492188 23.6885938,5.34445313 23.3427344,5.34445313 Z" id="Shape"></path>
                <path d="M25.346875,25.38625 C21.3178125,25.38625 18.04,28.6640625 18.04,32.693125 C18.04,36.7221875 21.3178906,40 25.346875,40 C29.3758594,40 32.65375,36.7221875 32.65375,32.693125 C32.65375,28.6640625 29.3759375,25.38625 25.346875,25.38625 Z M25.346875,38.7474219 C22.0085156,38.7474219 19.2925781,36.0314844 19.2925781,32.693125 C19.2925781,29.3547656 22.0085156,26.6388281 25.346875,26.6388281 C28.6852344,26.6388281 31.4011719,29.3547656 31.4011719,32.693125 C31.4011719,36.0314844 28.6853125,38.7474219 25.346875,38.7474219 Z" id="Shape"></path>
                <path d="M13.3286719,2.67226563 L13.3219531,2.67226563 C12.9760938,2.67226563 12.6989844,2.95265625 12.6989844,3.29859375 C12.6989844,3.64445312 12.9826562,3.92492187 13.3285937,3.92492187 C13.6744531,3.92492187 13.9549219,3.64453125 13.9549219,3.29859375 C13.955,2.95265625 13.6746094,2.67226563 13.3286719,2.67226563 Z" id="Shape"></path>
                <path d="M29.1300781,30.2460937 C28.8855469,30.0014844 28.4889062,30.0014844 28.244375,30.2460937 L24.0107812,34.4796875 L21.7814062,32.2503125 C21.5367969,32.0057031 21.1402344,32.0057031 20.8957031,32.2503125 C20.6510938,32.4949219 20.6510938,32.8914844 20.8957031,33.1360156 L23.5679687,35.8082812 C23.6902344,35.9305469 23.8505469,35.9917187 24.0107812,35.9917187 C24.1710156,35.9917187 24.3313281,35.930625 24.4535937,35.8082812 L29.13,31.131875 C29.3746094,30.8871875 29.3746094,30.490625 29.1300781,30.2460937 Z" id="Shape"></path>
                <path d="M10.6078906,13.8522656 L10.6078906,11.3258594 C11.4903125,11.4769531 12.0275,11.9264844 12.0275,12.2546875 C12.0275,12.6005469 12.3078906,12.8810156 12.6538281,12.8810156 C12.9997656,12.8810156 13.2801562,12.600625 13.2801562,12.2546875 C13.2801562,11.1475781 12.1479688,10.2530469 10.6078906,10.06 L10.6078906,9.9790625 C10.6078906,9.63320313 10.3275,9.35273438 9.9815625,9.35273438 C9.635625,9.35273438 9.35523438,9.633125 9.35523438,9.9790625 L9.35523438,10.06 C7.81515625,10.2529688 6.68296875,11.1475 6.68296875,12.2546875 C6.68296875,13.8229688 8.15398438,14.425625 9.35523438,14.7907031 L9.35523438,17.3171094 C8.4728125,17.1660156 7.935625,16.7164844 7.935625,16.3882813 C7.935625,16.0424219 7.65523438,15.7619531 7.30929688,15.7619531 C6.96335938,15.7619531 6.68296875,16.0423438 6.68296875,16.3882813 C6.68296875,17.4953906 7.81515625,18.3899219 9.35523438,18.5829688 L9.35523438,18.6639063 C9.35523438,19.0097656 9.635625,19.2902344 9.9815625,19.2902344 C10.3275,19.2902344 10.6078906,19.0098438 10.6078906,18.6639063 L10.6078906,18.5829688 C12.1479688,18.39 13.2801562,17.4954688 13.2801562,16.3882813 C13.2800781,14.8200781 11.8091406,14.2173438 10.6078906,13.8522656 Z M9.35523438,13.4696094 C8.29867188,13.1014063 7.935625,12.769375 7.935625,12.2546875 C7.935625,12.0566406 8.1103125,11.8378906 8.41484375,11.6546875 C8.6721875,11.4998438 8.99867188,11.3878906 9.35523438,11.3267188 L9.35523438,13.4696094 Z M11.5482813,16.9882812 C11.2909375,17.143125 10.9644531,17.2550781 10.6078906,17.31625 L10.6078906,15.1733594 C11.6644531,15.5415625 12.0275,15.8735938 12.0275,16.3882812 C12.0275,16.5864063 11.8528125,16.8050781 11.5482813,16.9882812 Z" id="Shape"></path>
                <path d="M19.334375,10.6889063 L15.9940625,10.6889063 C15.6482031,10.6889063 15.3677344,10.9692969 15.3677344,11.3152344 C15.3677344,11.6611719 15.648125,11.9415625 15.9940625,11.9415625 L19.334375,11.9415625 C19.6802344,11.9415625 19.9607031,11.6611719 19.9607031,11.3152344 C19.9607031,10.9692969 19.6803125,10.6889063 19.334375,10.6889063 Z" id="Shape"></path>
                <path d="M17.9982813,13.3611719 L15.9941406,13.3611719 C15.6482813,13.3611719 15.3678125,13.6415625 15.3678125,13.9875 C15.3678125,14.3334375 15.6482031,14.6138281 15.9941406,14.6138281 L17.9982813,14.6138281 C18.3441406,14.6138281 18.6246094,14.3334375 18.6246094,13.9875 C18.6246094,13.6415625 18.3441406,13.3611719 17.9982813,13.3611719 Z" id="Shape"></path>
                <path d="M19.334375,16.0334375 L15.9940625,16.0334375 C15.6482031,16.0334375 15.3677344,16.3138281 15.3677344,16.6597656 C15.3677344,17.0057031 15.648125,17.2860938 15.9940625,17.2860938 L19.334375,17.2860938 C19.6802344,17.2860938 19.9607031,17.0057031 19.9607031,16.6597656 C19.9607031,16.3138281 19.6803125,16.0334375 19.334375,16.0334375 Z" id="Shape"></path>
                <path d="M8.64546875,22.0459375 L7.309375,22.0459375 C6.96351563,22.0459375 6.68304688,22.3263281 6.68304688,22.6722656 C6.68304688,23.0182031 6.9634375,23.2985937 7.309375,23.2985937 L8.64546875,23.2985937 C8.99132812,23.2985937 9.27179687,23.0182031 9.27179687,22.6722656 C9.27179687,22.3263281 8.99132812,22.0459375 8.64546875,22.0459375 Z" id="Shape"></path>
                <path d="M8.64546875,27.3903906 L7.309375,27.3903906 C6.96351563,27.3903906 6.68304688,27.6707812 6.68304688,28.0167187 C6.68304688,28.3626563 6.9634375,28.6430469 7.309375,28.6430469 L8.64546875,28.6430469 C8.99132812,28.6430469 9.27179687,28.3626563 9.27179687,28.0167187 C9.27179687,27.6707812 8.99132812,27.3903906 8.64546875,27.3903906 Z" id="Shape"></path>
                <path d="M8.64546875,24.7182031 L7.309375,24.7182031 C6.96351563,24.7182031 6.68304688,24.9985937 6.68304688,25.3445312 C6.68304688,25.6904688 6.9634375,25.9708594 7.309375,25.9708594 L8.64546875,25.9708594 C8.99132812,25.9708594 9.27179687,25.6904688 9.27179687,25.3445312 C9.27179687,24.9985937 8.99132812,24.7182031 8.64546875,24.7182031 Z" id="Shape"></path>
                <path d="M19.334375,22.0459375 L11.3176562,22.0459375 C10.9717969,22.0459375 10.6913281,22.3263281 10.6913281,22.6722656 C10.6913281,23.0182031 10.9717187,23.2985937 11.3176562,23.2985937 L19.334375,23.2985937 C19.6802344,23.2985937 19.9607031,23.0182031 19.9607031,22.6722656 C19.9607031,22.3263281 19.6803125,22.0459375 19.334375,22.0459375 Z" id="Shape"></path>
                <path d="M17.3302344,27.3903906 L11.3177344,27.3903906 C10.971875,27.3903906 10.6914062,27.6707812 10.6914062,28.0167187 C10.6914062,28.3626563 10.9717969,28.6430469 11.3177344,28.6430469 L17.3302344,28.6430469 C17.6760937,28.6430469 17.9565625,28.3626563 17.9565625,28.0167187 C17.9565625,27.6707812 17.6760937,27.3903906 17.3302344,27.3903906 Z" id="Shape"></path>
                <path d="M19.334375,24.7182031 L11.3176562,24.7182031 C10.9717969,24.7182031 10.6913281,24.9985937 10.6913281,25.3445312 C10.6913281,25.6904688 10.9717187,25.9708594 11.3176562,25.9708594 L19.334375,25.9708594 C19.6802344,25.9708594 19.9607031,25.6904688 19.9607031,25.3445312 C19.9607031,24.9985937 19.6803125,24.7182031 19.334375,24.7182031 Z" id="Shape"></path>
            </g>
        </g>
    </g>
</svg>