<?xml version="1.0" encoding="UTF-8"?>
<svg width="34px" height="25px" viewBox="0 0 34 25" version="1.1" xmlns="http://www.w3.org/2000/svg" xmlns:xlink="http://www.w3.org/1999/xlink">
    <!-- Generator: Sketch 45.1 (43504) - http://www.bohemiancoding.com/sketch -->
    <title>inverted-commas copy</title>
    <desc>Created with Sketch.</desc>
    <defs></defs>
    <g id="Welcome" stroke="none" stroke-width="1" fill="none" fill-rule="evenodd" opacity="0.35">
        <g id="1" transform="translate(-23.000000, -28.000000)" fill-rule="nonzero" fill="#FFFFFF">
            <g id="inverted-commas-copy" transform="translate(39.722973, 40.500000) rotate(-180.000000) translate(-39.722973, -40.500000) translate(23.000000, 28.000000)">
                <path d="M0,11.4704392 L8.11216216,11.4704392 C7.97347973,17.3826014 6.29662162,18.0537162 4.19054054,18.2452703 L3.37837838,18.3459459 L3.37837838,24.8469595 L4.31452703,24.7967905 C7.06469595,24.6420608 10.1052365,24.1462838 12.1337838,21.6420608 C13.9119932,19.4467905 14.6959459,15.8603041 14.6959459,10.3547297 L14.6959459,0.152871622 L0,0.152871622 L0,11.4704392 Z" id="Shape"></path>
                <path d="M18.75,0.152871622 L18.75,11.4704392 L26.7538851,11.4704392 C26.6152027,17.3826014 24.9925676,18.0537162 22.8864865,18.2452703 L22.1283784,18.3459459 L22.1283784,24.8469595 L23.010473,24.7967905 C25.7606419,24.6420608 28.8283784,24.1462838 30.8569257,21.6420608 C32.6349662,19.4467905 33.4459459,15.8603041 33.4459459,10.3547297 L33.4459459,0.152871622 L18.75,0.152871622 Z" id="Shape"></path>
            </g>
        </g>
    </g>
</svg>